{
  "collectionName": "components_sections_facts",
  "info": {
    "name": "factBox",
    "icon": "barcode",
    "description": ""
  },
  "options": {},
  "attributes": {
    "facts": {
      "type": "text"
    }
  }
}
