{
  "collectionName": "components_sections_logins",
  "info": {
    "name": "Login",
    "icon": "address-card",
    "description": ""
  },
  "options": {},
  "attributes": {
    "loginbuttons": {
      "type": "component",
      "repeatable": true,
      "component": "links.button"
    },
    "loginimage": {
      "model": "file",
      "via": "related",
      "allowedTypes": [
        "images",
        "files",
        "videos"
      ],
      "plugin": "upload",
      "required": false
    },
    "text": {
      "type": "string"
    },
    "email": {
      "type": "email"
    },
    "password": {
      "type": "password"
    },
    "forgotpassword": {
      "type": "string"
    }
  }
}
