{
  "collectionName": "components_sections_preambles",
  "info": {
    "name": "preambleText",
    "icon": "align-right",
    "description": ""
  },
  "options": {},
  "attributes": {
    "preamble": {
      "type": "text"
    }
  }
}
