<svg width="159" height="9" viewBox="0 0 159 9" fill="none" xmlns="http://www.w3.org/2000/svg">
    <path d="M0 8.53467V0H1.86211V6.88398H5.1208V8.53467H0Z" fill="#878093"/>
    <path d="M109.756 8.53467C109.025 8.53467 108.406 8.41252 107.897 8.16822C107.388 7.91604 106.955 7.59294 106.598 7.19891L107.79 6.005C108.354 6.63545 109.049 6.95067 109.876 6.95067C110.321 6.95067 110.65 6.86004 110.865 6.67879C111.08 6.49754 111.187 6.25718 111.187 5.95772C111.187 5.72918 111.123 5.54005 110.996 5.39032C110.869 5.2327 110.611 5.12632 110.221 5.07115L109.399 4.96476C108.517 4.85444 107.869 4.59044 107.456 4.17277C107.051 3.7551 106.848 3.19951 106.848 2.50602C106.848 2.13564 106.919 1.79677 107.063 1.48943C107.206 1.18209 107.408 0.918087 107.67 0.697431C107.941 0.476775 108.266 0.307343 108.648 0.189134C109.037 0.0630448 109.478 0 109.971 0C110.599 0 111.151 0.0985072 111.628 0.295521C112.105 0.492536 112.514 0.780177 112.856 1.15844L111.652 2.36417C111.453 2.13564 111.211 1.95044 110.925 1.80859C110.646 1.65886 110.293 1.584 109.864 1.584C109.458 1.584 109.156 1.65492 108.958 1.79677C108.759 1.93862 108.66 2.13564 108.66 2.38781C108.66 2.67152 108.735 2.87641 108.886 3.0025C109.045 3.12859 109.3 3.21922 109.649 3.27438L110.472 3.40441C111.33 3.53838 111.966 3.80238 112.379 4.19641C112.792 4.58256 112.999 5.1342 112.999 5.85133C112.999 6.24536 112.927 6.60786 112.784 6.93885C112.641 7.26983 112.43 7.55353 112.152 7.78995C111.882 8.02637 111.544 8.21156 111.139 8.34553C110.734 8.47162 110.273 8.53467 109.756 8.53467Z" fill="#878093"/>
    <path d="M13.4844 8.53467V7.05516H14.6412V1.4795H13.4844V0H17.7517V1.4795H16.5949V7.05516H17.7517V8.53467H13.4844Z" fill="#878093"/>
    <path d="M124.14 8.53467L121.361 0H123.263L124.547 4.09615L125.227 6.77393H125.264L125.918 4.09615L127.202 0H129.043L126.239 8.53467H124.14Z" fill="#878093"/>
    <path d="M69.5574 8.53467C68.9819 8.53467 68.4565 8.44404 67.9811 8.26278C67.5057 8.08153 67.1012 7.81359 66.7676 7.45897C66.434 7.09646 66.1755 6.65121 65.992 6.12321C65.8085 5.58733 65.7168 4.9687 65.7168 4.26733C65.7168 3.56596 65.8085 2.95128 65.992 2.42328C66.1755 1.8874 66.434 1.44215 66.7676 1.08752C67.1012 0.725013 67.5057 0.453133 67.9811 0.27188C68.4565 0.0906267 68.9819 0 69.5574 0C70.1329 0 70.6583 0.0906267 71.1337 0.27188C71.6091 0.453133 72.0135 0.725013 72.3471 1.08752C72.6807 1.44215 72.9393 1.8874 73.1228 2.42328C73.3063 2.95128 73.398 3.56596 73.398 4.26733C73.398 4.9687 73.3063 5.58733 73.1228 6.12321C72.9393 6.65121 72.6807 7.09646 72.3471 7.45897C72.0135 7.81359 71.6091 8.08153 71.1337 8.26278C70.6583 8.44404 70.1329 8.53467 69.5574 8.53467ZM69.5574 6.93885C70.1329 6.93885 70.5791 6.76154 70.896 6.40691C71.2212 6.05228 71.3839 5.54399 71.3839 4.88202V3.65265C71.3839 2.99068 71.2212 2.48238 70.896 2.12776C70.5791 1.77313 70.1329 1.59582 69.5574 1.59582C68.9819 1.59582 68.5316 1.77313 68.2063 2.12776C67.8894 2.48238 67.7309 2.99068 67.7309 3.65265V4.88202C67.7309 5.54399 67.8894 6.05228 68.2063 6.40691C68.5316 6.76154 68.9819 6.93885 69.5574 6.93885Z" fill="#878093"/>
    <path d="M81.7637 8.53467V0H87.3112V1.65069H83.5849V3.39919H86.76V5.03765H83.5849V8.53467H81.7637Z" fill="#878093"/>
    <path d="M26.1152 8.53467V0H32.0895V1.65069H28.0765V3.39919H31.4959V5.03765H28.0765V8.53467H26.1152Z" fill="#878093"/>
    <path d="M137.408 8.53467V0H142.956V1.65069H139.183V3.39919H142.419V5.03765H139.183V6.88398H142.956V8.53467H137.408Z" fill="#878093"/>
    <path d="M40.4551 8.53467V0H46.4293V1.65069H42.3668V3.39919H45.8508V5.03765H42.3668V6.88398H46.4293V8.53467H40.4551Z" fill="#878093"/>
    <path d="M157.118 8.53467L156.523 6.50493H153.748L153.152 8.53467H151.318L154.057 0H156.296L159 8.53467H157.118ZM155.153 1.68737H155.093L154.176 4.92761H156.082L155.153 1.68737Z" fill="#878093"/>
    <path d="M57.3534 3.96868C57.3534 4.67571 56.7802 5.24888 56.0732 5.24888C55.3661 5.24888 54.793 4.67571 54.793 3.96868C54.793 3.26164 55.3661 2.68848 56.0732 2.68848C56.7802 2.68848 57.3534 3.26164 57.3534 3.96868Z" fill="#878093"/>
    <path d="M98.2342 3.96868C98.2342 4.67571 97.6611 5.24888 96.954 5.24888C96.247 5.24888 95.6738 4.67571 95.6738 3.96868C95.6738 3.26164 96.247 2.68848 96.954 2.68848C97.6611 2.68848 98.2342 3.26164 98.2342 3.96868Z" fill="#878093"/>
</svg>