{
  "kind": "collectionType",
  "collectionName": "articles",
  "info": {
    "name": "Article",
    "description": ""
  },
  "options": {
    "increments": true,
    "timestamps": true,
    "draftAndPublish": true
  },
  "attributes": {
    "shortName": {
      "type": "string"
    },
    "metadata": {
      "type": "component",
      "repeatable": true,
      "component": "meta.metadata"
    },
    "contentSections": {
      "type": "dynamiczone",
      "components": [
        "sections.hero",
        "sections.feature-rows-group",
        "sections.pricing",
        "sections.bottom-actions",
        "sections.rich-text",
        "sections.feature-columns-group",
        "sections.large-video",
        "sections.testimonials-group",
        "sections.art-image",
        "sections.article-section"
      ]
    },
    "slug": {
      "type": "uid",
      "targetField": "shortName"
    },
    "categories": {
      "via": "articles",
      "collection": "categories"
    }
  }
}
