{
  "collectionName": "components_elements_feature_images",
  "info": {
    "name": "featureImage",
    "icon": "id-badge"
  },
  "options": {},
  "attributes": {
    "featuredImage": {
      "model": "file",
      "via": "related",
      "allowedTypes": [
        "images",
        "files",
        "videos"
      ],
      "plugin": "upload",
      "required": false
    }
  }
}
